...................
----------------------------------------------------------------------
Ran 19 tests in 0.208s

OK
Name             Stmts   Miss Branch BrPart  Cover   Missing
------------------------------------------------------------
Collatz.py          46      0     20      0   100%
TestCollatz.py      78      0      0      0   100%
------------------------------------------------------------
TOTAL              124      0     20      0   100%
