...............
----------------------------------------------------------------------
Ran 15 tests in 22.078s

OK
Name             Stmts   Miss Branch BrPart  Cover   Missing
------------------------------------------------------------
Collatz.py          28      0     10      0   100%
TestCollatz.py      66      0      0      0   100%
------------------------------------------------------------
TOTAL               94      0     10      0   100%
